﻿{
  "dependencies": {
    "Microsoft.CSharp": "4.3.0",
    "Microsoft.NETCore.UniversalWindowsPlatform": "5.3.3",
    "Realm.Database": "1.4.0",
    "Realm.DataBinding": "1.1.0",
    "Xamarin.Forms": "2.3.4.247"
  },
  "frameworks": {
    "uap10.0": {}
  },
  "runtimes": {
    "win10-arm": {},
    "win10-arm-aot": {},
    "win10-x86": {},
    "win10-x86-aot": {},
    "win10-x64": {},
    "win10-x64-aot": {}
  }
}